#VRML V2.0 utf8

# Silver gimbal
DEF SG Shape {
  appearance Appearance {
    material Material {
      diffuseColor 0.85 0.85 0.85
    }
  }
  geometry DEF STLB IndexedFaceSet {
    normalPerVertex FALSE
    coordIndex [
      0, 1, 2, -1, 
      3, 4, 5, -1, 
      6, 7, 8, -1, 
      9, 10, 11, -1, 
      12, 13, 14, -1, 
      15, 16, 17, -1, 
      18, 19, 20, -1, 
      21, 22, 23, -1, 
      24, 25, 26, -1, 
      27, 28, 29, -1, 
      30, 31, 32, -1, 
      33, 34, 35, -1, 
      36, 37, 38, -1, 
      39, 40, 41, -1, 
      42, 43, 44, -1, 
      45, 46, 47, -1, 
      48, 49, 50, -1, 
      51, 52, 53, -1, 
      54, 55, 56, -1, 
      57, 58, 59, -1, 
      60, 61, 62, -1, 
      63, 64, 65, -1, 
      66, 67, 68, -1, 
      69, 70, 71, -1, 
      72, 73, 74, -1, 
      75, 76, 77, -1, 
      78, 79, 80, -1, 
      81, 82, 83, -1, 
      84, 85, 86, -1, 
      87, 88, 89, -1, 
      90, 91, 92, -1, 
      93, 94, 95, -1, 
      96, 97, 98, -1, 
      99, 100, 101, -1, 
      102, 103, 104, -1, 
      105, 106, 107, -1, 
      108, 109, 110, -1, 
      111, 112, 113, -1, 
      114, 115, 116, -1, 
      117, 118, 119, -1, 
      120, 121, 122, -1, 
      123, 124, 125, -1, 
      126, 127, 128, -1, 
      129, 130, 131, -1, 
      132, 133, 134, -1, 
      135, 136, 137, -1, 
      138, 139, 140, -1, 
      141, 142, 143, -1, 
      144, 145, 146, -1, 
      147, 148, 149, -1, 
      150, 151, 152, -1, 
      153, 154, 155, -1, 
      156, 157, 158, -1, 
      159, 160, 161, -1, 
      162, 163, 164, -1, 
      165, 166, 167, -1, 
      168, 169, 170, -1, 
      171, 172, 173, -1, 
      174, 175, 176, -1, 
      177, 178, 179, -1, 
      180, 181, 182, -1, 
      183, 184, 185, -1, 
      186, 187, 188, -1, 
      189, 190, 191, -1, 
      192, 193, 194, -1, 
      195, 196, 197, -1, 
      198, 199, 200, -1, 
      201, 202, 203, -1, 
      204, 205, 206, -1, 
      207, 208, 209, -1, 
      210, 211, 212, -1, 
      213, 214, 215, -1, 
      216, 217, 218, -1, 
      219, 220, 221, -1, 
      222, 223, 224, -1, 
      225, 226, 227, -1, 
      228, 229, 230, -1, 
      231, 232, 233, -1, 
      234, 235, 236, -1, 
      237, 238, 239, -1, 
      240, 241, 242, -1, 
      243, 244, 245, -1, 
      246, 247, 248, -1, 
      249, 250, 251, -1, 
      252, 253, 254, -1, 
      255, 256, 257, -1, 
      258, 259, 260, -1, 
      261, 262, 263, -1, 
      264, 265, 266, -1, 
      267, 268, 269, -1, 
      270, 271, 272, -1, 
      273, 274, 275, -1, 
      276, 277, 278, -1, 
      279, 280, 281, -1, 
      282, 283, 284, -1, 
      285, 286, 287, -1, 
      288, 289, 290, -1, 
      291, 292, 293, -1, 
      294, 295, 296, -1, 
      297, 298, 299, -1, 
      300, 301, 302, -1, 
      303, 304, 305, -1, 
      306, 307, 308, -1, 
      309, 310, 311, -1, 
      312, 313, 314, -1, 
      315, 316, 317, -1, 
      318, 319, 320, -1, 
      321, 322, 323, -1, 
      324, 325, 326, -1, 
      327, 328, 329, -1, 
      330, 331, 332, -1, 
      333, 334, 335, -1, 
      336, 337, 338, -1, 
      339, 340, 341, -1, 
      342, 343, 344, -1, 
      345, 346, 347, -1, 
      348, 349, 350, -1, 
      351, 352, 353, -1, 
      354, 355, 356, -1, 
      357, 358, 359, -1, 
      360, 361, 362, -1, 
      363, 364, 365, -1, 
      366, 367, 368, -1, 
      369, 370, 371, -1, 
      372, 373, 374, -1, 
      375, 376, 377, -1, 
      378, 379, 380, -1, 
      381, 382, 383, -1, 
      384, 385, 386, -1, 
      387, 388, 389, -1, 
      390, 391, 392, -1, 
      393, 394, 395, -1, 
      396, 397, 398, -1, 
      399, 400, 401, -1, 
      402, 403, 404, -1, 
      405, 406, 407, -1, 
      408, 409, 410, -1, 
      411, 412, 413, -1, 
      414, 415, 416, -1, 
      417, 418, 419, -1, 
      420, 421, 422, -1, 
      423, 424, 425, -1, 
      426, 427, 428, -1, 
      429, 430, 431, -1, 
      432, 433, 434, -1, 
      435, 436, 437, -1, 
      438, 439, 440, -1, 
      441, 442, 443, -1, 
      444, 445, 446, -1, 
      447, 448, 449, -1, 
      450, 451, 452, -1, 
      453, 454, 455, -1, 
      456, 457, 458, -1, 
      459, 460, 461, -1, 
      462, 463, 464, -1, 
      465, 466, 467, -1, 
      468, 469, 470, -1, 
      471, 472, 473, -1, 
      474, 475, 476, -1, 
      477, 478, 479, -1, 
      480, 481, 482, -1, 
      483, 484, 485, -1, 
      486, 487, 488, -1, 
      489, 490, 491, -1, 
      492, 493, 494, -1, 
      495, 496, 497, -1, 
      498, 499, 500, -1, 
      501, 502, 503, -1, 
      504, 505, 506, -1, 
      507, 508, 509, -1, 
      510, 511, 512, -1, 
      513, 514, 515, -1, 
      516, 517, 518, -1, 
      519, 520, 521, -1, 
      522, 523, 524, -1, 
      525, 526, 527, -1, 
      528, 529, 530, -1, 
      531, 532, 533, -1, 
      534, 535, 536, -1, 
      537, 538, 539, -1, 
      540, 541, 542, -1, 
      543, 544, 545, -1, 
      546, 547, 548, -1, 
      549, 550, 551, -1, 
      552, 553, 554, -1, 
      555, 556, 557, -1, 
      558, 559, 560, -1, 
      561, 562, 563, -1, 
      564, 565, 566, -1, 
      567, 568, 569, -1, 
      570, 571, 572, -1, 
      573, 574, 575, -1, 
      576, 577, 578, -1, 
      579, 580, 581, -1, 
      582, 583, 584, -1, 
      585, 586, 587, -1, 
      588, 589, 590, -1, 
      591, 592, 593, -1, 
      594, 595, 596, -1, 
      597, 598, 599, -1, 
      600, 601, 602, -1, 
      603, 604, 605, -1, 
      606, 607, 608, -1, 
      609, 610, 611, -1, 
      612, 613, 614, -1, 
      615, 616, 617, -1, 
      618, 619, 620, -1, 
      621, 622, 623, -1, 
      624, 625, 626, -1, 
      627, 628, 629, -1, 
      630, 631, 632, -1, 
      633, 634, 635, -1, 
      636, 637, 638, -1, 
      639, 640, 641, -1, 
      642, 643, 644, -1, 
      645, 646, 647, -1, 
      648, 649, 650, -1, 
      651, 652, 653, -1, 
      654, 655, 656, -1, 
      657, 658, 659, -1, 
      660, 661, 662, -1, 
      663, 664, 665, -1, 
      666, 667, 668, -1, 
      669, 670, 671, -1, 
      672, 673, 674, -1, 
      675, 676, 677, -1, 
      678, 679, 680, -1, 
      681, 682, 683, -1, 
      684, 685, 686, -1, 
      687, 688, 689, -1, 
      690, 691, 692, -1, 
      693, 694, 695, -1, 
      696, 697, 698, -1, 
      699, 700, 701, -1, 
      702, 703, 704, -1, 
      705, 706, 707, -1, 
      708, 709, 710, -1, 
      711, 712, 713, -1, 
      714, 715, 716, -1, 
      717, 718, 719, -1, 
      720, 721, 722, -1, 
      723, 724, 725, -1, 
      726, 727, 728, -1, 
      729, 730, 731, -1, 
      732, 733, 734, -1, 
      735, 736, 737, -1, 
      738, 739, 740, -1, 
      741, 742, 743, -1, 
      744, 745, 746, -1, 
      747, 748, 749, -1, 
      750, 751, 752, -1, 
      753, 754, 755, -1, 
      756, 757, 758, -1, 
      759, 760, 761, -1, 
      762, 763, 764, -1, 
      765, 766, 767, -1, 
      768, 769, 770, -1, 
      771, 772, 773, -1, 
      774, 775, 776, -1, 
      777, 778, 779, -1, 
      780, 781, 782, -1, 
      783, 784, 785, -1, 
      786, 787, 788, -1, 
      789, 790, 791, -1, 
      792, 793, 794, -1, 
      795, 796, 797, -1, 
      798, 799, 800, -1, 
      801, 802, 803, -1, 
      804, 805, 806, -1, 
      807, 808, 809, -1, 
      810, 811, 812, -1, 
      813, 814, 815, -1, 
      816, 817, 818, -1, 
      819, 820, 821, -1, 
      822, 823, 824, -1, 
      825, 826, 827, -1, 
      828, 829, 830, -1, 
      831, 832, 833, -1, 
      834, 835, 836, -1, 
      837, 838, 839, -1, 
      840, 841, 842, -1, 
      843, 844, 845, -1, 
      846, 847, 848, -1, 
      849, 850, 851, -1, 
      852, 853, 854, -1, 
      855, 856, 857, -1, 
      858, 859, 860, -1, 
      861, 862, 863, -1, 
      864, 865, 866, -1, 
      867, 868, 869, -1, 
      870, 871, 872, -1, 
      873, 874, 875, -1, 
      876, 877, 878, -1, 
      879, 880, 881, -1, 
      882, 883, 884, -1, 
      885, 886, 887, -1, 
      888, 889, 890, -1, 
      891, 892, 893, -1, 
      894, 895, 896, -1, 
      897, 898, 899, -1, 
      900, 901, 902, -1, 
      903, 904, 905, -1, 
      906, 907, 908, -1, 
      909, 910, 911, -1, 
      912, 913, 914, -1, 
      915, 916, 917, -1, 
      918, 919, 920, -1, 
      921, 922, 923, -1, 
      924, 925, 926, -1, 
      927, 928, 929, -1, 
      930, 931, 932, -1, 
      933, 934, 935, -1, 
      936, 937, 938, -1, 
      939, 940, 941, -1, 
      942, 943, 944, -1, 
      945, 946, 947, -1, 
      948, 949, 950, -1, 
      951, 952, 953, -1, 
      954, 955, 956, -1, 
      957, 958, 959, -1, 
      960, 961, 962, -1, 
      963, 964, 965, -1, 
      966, 967, 968, -1, 
      969, 970, 971, -1, 
      972, 973, 974, -1, 
      975, 976, 977, -1, 
      978, 979, 980, -1, 
      981, 982, 983, -1, 
      984, 985, 986, -1, 
      987, 988, 989, -1, 
      990, 991, 992, -1, 
      993, 994, 995, -1, 
      996, 997, 998, -1, 
      999, 1000, 1001, -1, 
      1002, 1003, 1004, -1, 
      1005, 1006, 1007, -1, 
      1008, 1009, 1010, -1, 
      1011, 1012, 1013, -1, 
      1014, 1015, 1016, -1, 
      1017, 1018, 1019, -1, 
      1020, 1021, 1022, -1, 
      1023, 1024, 1025, -1, 
      1026, 1027, 1028, -1, 
      1029, 1030, 1031, -1, 
      1032, 1033, 1034, -1, 
      1035, 1036, 1037, -1, 
      1038, 1039, 1040, -1, 
      1041, 1042, 1043, -1, 
      1044, 1045, 1046, -1, 
      1047, 1048, 1049, -1, 
      1050, 1051, 1052, -1, 
      1053, 1054, 1055, -1, 
      1056, 1057, 1058, -1, 
      1059, 1060, 1061, -1, 
      1062, 1063, 1064, -1, 
      1065, 1066, 1067, -1, 
      1068, 1069, 1070, -1, 
      1071, 1072, 1073, -1, 
      1074, 1075, 1076, -1, 
      1077, 1078, 1079, -1, 
      1080, 1081, 1082, -1, 
      1083, 1084, 1085, -1, 
      1086, 1087, 1088, -1, 
      1089, 1090, 1091, -1, 
      1092, 1093, 1094, -1, 
      1095, 1096, 1097, -1, 
      1098, 1099, 1100, -1, 
      1101, 1102, 1103, -1, 
      1104, 1105, 1106, -1, 
      1107, 1108, 1109, -1, 
      1110, 1111, 1112, -1, 
      1113, 1114, 1115, -1, 
      1116, 1117, 1118, -1, 
      1119, 1120, 1121, -1, 
      1122, 1123, 1124, -1, 
      1125, 1126, 1127, -1, 
      1128, 1129, 1130, -1, 
      1131, 1132, 1133, -1, 
      1134, 1135, 1136, -1, 
      1137, 1138, 1139, -1, 
      1140, 1141, 1142, -1, 
      1143, 1144, 1145, -1, 
      1146, 1147, 1148, -1, 
      1149, 1150, 1151, -1, 
      1152, 1153, 1154, -1, 
      1155, 1156, 1157, -1, 
      1158, 1159, 1160, -1, 
      1161, 1162, 1163, -1, 
      1164, 1165, 1166, -1, 
      1167, 1168, 1169, -1, 
      1170, 1171, 1172, -1, 
      1173, 1174, 1175, -1, 
      1176, 1177, 1178, -1, 
      1179, 1180, 1181, -1, 
      1182, 1183, 1184, -1, 
      1185, 1186, 1187, -1, 
      1188, 1189, 1190, -1, 
      1191, 1192, 1193, -1, 
      1194, 1195, 1196, -1, 
      1197, 1198, 1199, -1, 
      1200, 1201, 1202, -1, 
      1203, 1204, 1205, -1, 
      1206, 1207, 1208, -1, 
      1209, 1210, 1211, -1, 
      1212, 1213, 1214, -1, 
      1215, 1216, 1217, -1, 
      1218, 1219, 1220, -1, 
      1221, 1222, 1223, -1, 
      1224, 1225, 1226, -1, 
      1227, 1228, 1229, -1, 
      1230, 1231, 1232, -1, 
      1233, 1234, 1235, -1, 
      1236, 1237, 1238, -1, 
      1239, 1240, 1241, -1, 
      1242, 1243, 1244, -1, 
      1245, 1246, 1247, -1, 
      1248, 1249, 1250, -1, 
      1251, 1252, 1253, -1, 
      1254, 1255, 1256, -1, 
      1257, 1258, 1259, -1, 
      1260, 1261, 1262, -1, 
      1263, 1264, 1265, -1, 
      1266, 1267, 1268, -1, 
      1269, 1270, 1271, -1, 
      1272, 1273, 1274, -1, 
      1275, 1276, 1277, -1, 
      1278, 1279, 1280, -1, 
      1281, 1282, 1283, -1, 
      1284, 1285, 1286, -1, 
      1287, 1288, 1289, -1, 
      1290, 1291, 1292, -1, 
      1293, 1294, 1295, -1, 
      1296, 1297, 1298, -1, 
      1299, 1300, 1301, -1, 
      1302, 1303, 1304, -1, 
      1305, 1306, 1307, -1, 
      1308, 1309, 1310, -1, 
      1311, 1312, 1313, -1, 
      1314, 1315, 1316, -1, 
      1317, 1318, 1319, -1, 
      1320, 1321, 1322, -1, 
      1323, 1324, 1325, -1, 
      1326, 1327, 1328, -1, 
      1329, 1330, 1331, -1, 
      1332, 1333, 1334, -1, 
      1335, 1336, 1337, -1, 
      1338, 1339, 1340, -1, 
      1341, 1342, 1343, -1, 
      1344, 1345, 1346, -1, 
      1347, 1348, 1349, -1, 
      1350, 1351, 1352, -1, 
      1353, 1354, 1355, -1, 
      1356, 1357, 1358, -1, 
      1359, 1360, 1361, -1, 
      1362, 1363, 1364, -1, 
      1365, 1366, 1367, -1, 
      1368, 1369, 1370, -1, 
      1371, 1372, 1373, -1, 
      1374, 1375, 1376, -1, 
      1377, 1378, 1379, -1, 
      1380, 1381, 1382, -1, 
      1383, 1384, 1385, -1, 
      1386, 1387, 1388, -1, 
      1389, 1390, 1391, -1, 
      1392, 1393, 1394, -1, 
      1395, 1396, 1397, -1, 
      1398, 1399, 1400, -1, 
      1401, 1402, 1403, -1, 
      1404, 1405, 1406, -1, 
      1407, 1408, 1409, -1, 
      1410, 1411, 1412, -1, 
      1413, 1414, 1415, -1, 
      1416, 1417, 1418, -1, 
      1419, 1420, 1421, -1, 
      1422, 1423, 1424, -1, 
      1425, 1426, 1427, -1, 
      1428, 1429, 1430, -1, 
      1431, 1432, 1433, -1, 
      1434, 1435, 1436, -1, 
      1437, 1438, 1439, -1, 
      1440, 1441, 1442, -1, 
      1443, 1444, 1445, -1, 
      1446, 1447, 1448, -1, 
      1449, 1450, 1451, -1, 
      1452, 1453, 1454, -1, 
      1455, 1456, 1457, -1, 
      1458, 1459, 1460, -1, 
      1461, 1462, 1463, -1, 
      1464, 1465, 1466, -1, 
      1467, 1468, 1469, -1, 
      1470, 1471, 1472, -1, 
      1473, 1474, 1475, -1, 
      1476, 1477, 1478, -1, 
      1479, 1480, 1481, -1, 
      1482, 1483, 1484, -1, 
      1485, 1486, 1487, -1, 
      1488, 1489, 1490, -1, 
      1491, 1492, 1493, -1, 
      1494, 1495, 1496, -1, 
      1497, 1498, 1499, -1, 
      1500, 1501, 1502, -1, 
      1503, 1504, 1505, -1, 
      1506, 1507, 1508, -1, 
      1509, 1510, 1511, -1, 
      1512, 1513, 1514, -1, 
      1515, 1516, 1517, -1, 
      1518, 1519, 1520, -1, 
      1521, 1522, 1523, -1, 
      1524, 1525, 1526, -1, 
      1527, 1528, 1529, -1, 
      1530, 1531, 1532, -1, 
      1533, 1534, 1535, -1, 
      1536, 1537, 1538, -1, 
      1539, 1540, 1541, -1, 
      1542, 1543, 1544, -1, 
      1545, 1546, 1547, -1, 
      1548, 1549, 1550, -1, 
      1551, 1552, 1553, -1, 
      1554, 1555, 1556, -1, 
      1557, 1558, 1559, -1, 
      1560, 1561, 1562, -1, 
      1563, 1564, 1565, -1, 
      1566, 1567, 1568, -1, 
      1569, 1570, 1571, -1, 
      1572, 1573, 1574, -1, 
      1575, 1576, 1577, -1, 
      1578, 1579, 1580, -1, 
      1581, 1582, 1583, -1 
    ]
    normal DEF STLB_Normal Normal {
      vector [
        1 1.33749e-16 1.82038e-15,
        1 0 0,
        1 0 0,
        1 0 0,
        1 0 0,
        1 0 0,
        1 0 0,
        1 0 -0,
        1 0 -0,
        1 0 -0,
        1 0 -0,
        1 0 -0,
        1 0 -0,
        1 0 -0,
        1 1.33749e-16 -1.82038e-15,
        1 2.06892e-16 -8.39394e-16,
        1 0 -3.65528e-15,
        1 2.7661e-16 0,
        1 2.72981e-16 3.31459e-17,
        1 2.66119e-16 1.00926e-16,
        1 2.58865e-16 1.78682e-16,
        1 2.49951e-16 2.82137e-16,
        1 2.36437e-16 4.50492e-16,
        1 2.06892e-16 8.39394e-16,
        1 0 3.65528e-15,
        1 2.72981e-16 -3.31459e-17,
        1 2.66119e-16 -1.00926e-16,
        1 2.58865e-16 -1.78682e-16,
        1 2.49951e-16 -2.82137e-16,
        1 2.36437e-16 -4.50492e-16,
        -0 -1 0,
        -0 -1 0,
        -0 -1 0,
        -0 -1 0,
        -0 -1 0,
        -0 -1 0,
        -0 -1 0,
        -0 -1 0,
        -0 -1 0,
        -0 -1 0,
        -0 -1 0,
        -0 -1 0,
        -0 -1 0,
        -0 -1 0,
        -0 -1 0,
        0 -1 0,
        -0 -1 -0,
        0 -1 0,
        0 -1 0,
        0 -1 0,
        0 -1 0,
        0 -1 0,
        0 -1 0,
        0 -1 0,
        0 -1 0,
        0 -1 0,
        0 -1 0,
        0 -1 0,
        -0 -1 -0,
        0 -1 0,
        -1 0 0,
        -1 0 0,
        -1 0 0,
        -1 0 0,
        -1 0 0,
        -1 0 0,
        -1 0 0,
        -1 0 0,
        -1 0 0,
        -1 0 0,
        -1 0 0,
        -1 0 0,
        -1 0 0,
        -1 0 0,
        -1 0 0,
        -1 0 0,
        -1 0 0,
        -1 0 -0,
        -1 0 0,
        -1 0 0,
        -1 0 0,
        -1 0 0,
        -1 0 0,
        -1 0 0,
        -1 0 0,
        -1 0 0,
        -1 0 0,
        -1 -0 0,
        -1 0 -0,
        -1 0 0,
        1 0 0,
        1 0 0,
        1 0 0,
        1 0 0,
        1 0 0,
        1 0 0,
        1 0 0,
        1 0 -0,
        1 0 -0,
        1 0 -0,
        1 0 -0,
        1 0 -0,
        1 0 -0,
        1 0 -0,
        1 0 -0,
        1 0 -0,
        1 0 0,
        1 0 -0,
        1 0 -0,
        1 0 0,
        1 0 -0,
        1 0 -0,
        1 0 -0,
        1 0 -0,
        1 0 -0,
        1 0 -0,
        1 0 -0,
        1 -0 0,
        1 0 0,
        1 0 -0,
        -8.74514e-16 1 -7.26311e-15,
        0 1 -1.46211e-14,
        -1.1827e-15 1 -4.79841e-15,
        -1.43983e-15 1 -2.74336e-15,
        -1.56898e-15 1 -1.77101e-15,
        -1.65861e-15 1 -1.14485e-15,
        -1.73434e-15 1 -6.57747e-16,
        -1.8084e-15 1 -2.19579e-16,
        -1.84857e-15 1 0,
        -1.8084e-15 1 2.19579e-16,
        -1.73434e-15 1 6.57747e-16,
        -1.65861e-15 1 1.14485e-15,
        -1.56898e-15 1 1.77101e-15,
        -1.43983e-15 1 2.74336e-15,
        -1.1827e-15 1 4.79841e-15,
        0 1 1.46211e-14,
        -8.74514e-16 1 7.26311e-15,
        -0 1 0,
        0 1 -0,
        0 1 -0,
        0 1 -0,
        0 1 -0,
        0 1 -0,
        0 1 -0,
        0 1 -0,
        0 1 -0,
        0 1 -0,
        0 1 0,
        -0 1 0,
        0 1 -0,
        -1 -1.26319e-16 1.83366e-15,
        -1 0 0,
        -1 0 0,
        -1 0 0,
        -1 0 0,
        -1 0 0,
        -1 0 0,
        -1 0 0,
        -1 0 0,
        -1 0 0,
        -1 0 0,
        -1 0 0,
        -1 0 0,
        -1 0 0,
        -1 0 0,
        -1 -1.26319e-16 -1.83366e-15,
        -1 -2.14721e-16 -5.66173e-16,
        -1 -1.61188e-16 -1.3275e-15,
        -1 -2.60689e-16 0,
        -1 -2.60689e-16 0,
        -1 -2.5446e-16 6.27186e-17,
        -1 -2.48267e-16 1.303e-16,
        -1 -2.4122e-16 2.13702e-16,
        -1 -2.3167e-16 3.35631e-16,
        -1 -2.14721e-16 5.66173e-16,
        -1 -1.61188e-16 1.3275e-15,
        -1 -2.5446e-16 -6.27186e-17,
        -1 -2.48267e-16 -1.303e-16,
        -1 -2.4122e-16 -2.13702e-16,
        -1 -2.3167e-16 -3.35631e-16,
        -0 -1 0,
        -0 -1 0,
        -0 -1 0,
        -0 -1 0,
        -0 -1 0,
        -0 -1 0,
        -0 -1 0,
        -0 -1 0,
        -0 -1 0,
        -0 -1 0,
        -0 -1 0,
        -0 -1 0,
        -0 -1 0,
        -0 -1 0,
        0 -1 0,
        -0 -1 -0,
        0 -1 0,
        0 -1 0,
        0 -1 0,
        0 -1 0,
        0 -1 0,
        0 -1 0,
        0 -1 0,
        0 -1 0,
        0 -1 0,
        0 -1 0,
        0 -1 0,
        -0 -1 -0,
        0 -1 0,
        0 -1 0,
        -0 1 0,
        -0 1 0,
        -0 1 0,
        -0 1 0,
        -0 1 0,
        -0 1 0,
        -0 1 0,
        -0 1 0,
        -0 1 -0,
        -0 1 -0,
        -0 1 -0,
        -0 1 -0,
        -0 1 -0,
        -0 1 -0,
        -0 1 -0,
        0 1 -0,
        -0 1 0,
        0 1 -0,
        0 1 -0,
        0 1 -0,
        0 1 -0,
        0 1 -0,
        0 1 -0,
        0 1 -0,
        0 1 -0,
        0 1 -0,
        0 1 -0,
        0 1 0,
        -0 1 0,
        0 1 -0,
        0 0 1,
        0 0 1,
        0 0 1,
        0 0 1,
        -0 0 1,
        -0 -0 1,
        0 0 1,
        -0 0 1,
        0 0 -1,
        0 0 -1,
        0 0 -1,
        -0 0 -1,
        -0 0 -1,
        -0 0 -1,
        -0 0 -1,
        -0 0 -1,
        -0.00637961 -0.992689 -0.120534,
        0.00637961 -0.970922 -0.239311,
        -0.00637961 -0.934997 -0.354598,
        0.00637961 -0.885438 -0.464714,
        -0.00637961 -0.822967 -0.568053,
        -0.00637961 -0.663109 -0.748496,
        -0.00637961 -0.464714 -0.885438,
        -0.00637961 -0.239311 -0.970922,
        -0.00637961 -0 -0.99998,
        -0.00637961 0.239311 -0.970922,
        -0.00637961 0.464714 -0.885438,
        -0.00637961 0.663109 -0.748496,
        -0.00637961 0.822967 -0.568053,
        -0.00637961 0.934997 -0.354598,
        -0.00637961 0.992689 -0.120534,
        -0.00637961 0.992689 0.120534,
        -0.00637961 0.934997 0.354598,
        -0.00637961 0.822967 0.568053,
        -0.00637961 0.663109 0.748496,
        -0.00637961 0.464714 0.885438,
        -0.00637961 0.239311 0.970922,
        -0.00637961 0 0.99998,
        -0.00637961 -0.239311 0.970922,
        -0.00637961 -0.464714 0.885438,
        -0.00637961 -0.663109 0.748496,
        -0.00637961 -0.822967 0.568053,
        -0.00637961 -0.934997 0.354598,
        -0.00637961 -0.992689 0.120534,
        0.00637961 -0.99998 0,
        0.00637961 -0.748496 -0.663109,
        0.00637961 -0.568053 -0.822967,
        0.00637961 -0.354598 -0.934997,
        0.00637961 -0.120534 -0.992689,
        0.00637961 0.120534 -0.992689,
        0.00637961 0.354598 -0.934997,
        0.00637961 0.568053 -0.822967,
        0.00637961 0.748496 -0.663109,
        0.00637961 0.885438 -0.464714,
        0.00637961 0.970922 -0.239311,
        0.00637961 0.99998 0,
        0.00637961 0.970922 0.239311,
        0.00637961 0.885438 0.464714,
        0.00637961 0.748496 0.663109,
        0.00637961 0.568053 0.822967,
        0.00637961 0.354598 0.934997,
        0.00637961 0.120534 0.992689,
        0.00637961 -0.120534 0.992689,
        0.00637961 -0.354598 0.934997,
        0.00637961 -0.568053 0.822967,
        0.00637961 -0.748496 0.663109,
        0.00637961 -0.885438 0.464714,
        0.00637961 -0.970922 0.239311,
        -0.00637961 -0.120534 0.992689,
        0.00637961 -0.239311 0.970922,
        -0.00637961 -0.354598 0.934997,
        0.00637961 -0.464714 0.885438,
        -0.00637961 -0.568053 0.822967,
        -0.00637961 -0.748496 0.663109,
        -0.00637961 -0.885438 0.464714,
        -0.00637961 -0.970922 0.239311,
        -0.00637961 -0.99998 0,
        -0.00637961 -0.970922 -0.239311,
        -0.00637961 -0.885438 -0.464714,
        -0.00637961 -0.748496 -0.663109,
        -0.00637961 -0.568053 -0.822967,
        -0.00637961 -0.354598 -0.934997,
        -0.00637961 -0.120534 -0.992689,
        -0.00637961 0.120534 -0.992689,
        -0.00637961 0.354598 -0.934997,
        -0.00637961 0.568053 -0.822967,
        -0.00637961 0.748496 -0.663109,
        -0.00637961 0.885438 -0.464714,
        -0.00637961 0.970922 -0.239311,
        -0.00637961 0.99998 0,
        -0.00637961 0.970922 0.239311,
        -0.00637961 0.885438 0.464714,
        -0.00637961 0.748496 0.663109,
        -0.00637961 0.568053 0.822967,
        -0.00637961 0.354598 0.934997,
        -0.00637961 0.120534 0.992689,
        0.00637961 0 0.99998,
        0.00637961 -0.663109 0.748496,
        0.00637961 -0.822967 0.568053,
        0.00637961 -0.934997 0.354598,
        0.00637961 -0.992689 0.120534,
        0.00637961 -0.992689 -0.120534,
        0.00637961 -0.934997 -0.354598,
        0.00637961 -0.822967 -0.568053,
        0.00637961 -0.663109 -0.748496,
        0.00637961 -0.464714 -0.885438,
        0.00637961 -0.239311 -0.970922,
        0.00637961 0 -0.99998,
        0.00637961 0.239311 -0.970922,
        0.00637961 0.464714 -0.885438,
        0.00637961 0.663109 -0.748496,
        0.00637961 0.822967 -0.568053,
        0.00637961 0.934997 -0.354598,
        0.00637961 0.992689 -0.120534,
        0.00637961 0.992689 0.120534,
        0.00637961 0.934997 0.354598,
        0.00637961 0.822967 0.568053,
        0.00637961 0.663109 0.748496,
        0.00637961 0.464714 0.885438,
        0.00637961 0.239311 0.970922,
        -0.120536 -0.004083 -0.992701,
        -0.239314 0.004083 -0.970934,
        -0.354602 -0.004083 -0.935008,
        -0.464719 0.004083 -0.885449,
        -0.56806 -0.004083 -0.822977,
        -0.748505 -0.004083 -0.663117,
        -0.885449 -0.004083 -0.464719,
        -0.970934 -0.004083 -0.239314,
        -0.999992 -0.004083 -0,
        -0.970934 -0.004083 0.239314,
        -0.885449 -0.004083 0.464719,
        -0.748505 -0.004083 0.663117,
        -0.56806 -0.004083 0.822977,
        -0.354602 -0.004083 0.935008,
        -0.120536 -0.004083 0.992701,
        0.120536 -0.004083 0.992701,
        0.354602 -0.004083 0.935008,
        0.56806 -0.004083 0.822977,
        0.748505 -0.004083 0.663117,
        0.885449 -0.004083 0.464719,
        0.970934 -0.004083 0.239314,
        0.999992 -0.004083 0,
        0.970934 -0.004083 -0.239314,
        0.885449 -0.004083 -0.464719,
        0.748505 -0.004083 -0.663117,
        0.56806 -0.004083 -0.822977,
        0.354602 -0.004083 -0.935008,
        0.120536 -0.004083 -0.992701,
        0 0.004083 -0.999992,
        -0.663117 0.004083 -0.748505,
        -0.822977 0.004083 -0.56806,
        -0.935008 0.004083 -0.354602,
        -0.992701 0.004083 -0.120536,
        -0.992701 0.004083 0.120536,
        -0.935008 0.004083 0.354602,
        -0.822977 0.004083 0.56806,
        -0.663117 0.004083 0.748505,
        -0.464719 0.004083 0.885449,
        -0.239314 0.004083 0.970934,
        0 0.004083 0.999992,
        0.239314 0.004083 0.970934,
        0.464719 0.004083 0.885449,
        0.663117 0.004083 0.748505,
        0.822977 0.004083 0.56806,
        0.935008 0.004083 0.354602,
        0.992701 0.004083 0.120536,
        0.992701 0.004083 -0.120536,
        0.935008 0.004083 -0.354602,
        0.822977 0.004083 -0.56806,
        0.663117 0.004083 -0.748505,
        0.464719 0.004083 -0.885449,
        0.239314 0.004083 -0.970934,
        0.992701 -0.004083 -0.120536,
        0.970934 0.004083 -0.239314,
        0.935008 -0.004083 -0.354602,
        0.885449 0.004083 -0.464719,
        0.822977 -0.004083 -0.56806,
        0.663117 -0.004083 -0.748505,
        0.464719 -0.004083 -0.885449,
        0.239314 -0.004083 -0.970934,
        0 -0.004083 -0.999992,
        -0.239314 -0.004083 -0.970934,
        -0.464719 -0.004083 -0.885449,
        -0.663117 -0.004083 -0.748505,
        -0.822977 -0.004083 -0.56806,
        -0.935008 -0.004083 -0.354602,
        -0.992701 -0.004083 -0.120536,
        -0.992701 -0.004083 0.120536,
        -0.935008 -0.004083 0.354602,
        -0.822977 -0.004083 0.56806,
        -0.663117 -0.004083 0.748505,
        -0.464719 -0.004083 0.885449,
        -0.239314 -0.004083 0.970934,
        0 -0.004083 0.999992,
        0.239314 -0.004083 0.970934,
        0.464719 -0.004083 0.885449,
        0.663117 -0.004083 0.748505,
        0.822977 -0.004083 0.56806,
        0.935008 -0.004083 0.354602,
        0.992701 -0.004083 0.120536,
        0.999992 0.004083 0,
        0.748505 0.004083 -0.663117,
        0.56806 0.004083 -0.822977,
        0.354602 0.004083 -0.935008,
        0.120536 0.004083 -0.992701,
        -0.120536 0.004083 -0.992701,
        -0.354602 0.004083 -0.935008,
        -0.56806 0.004083 -0.822977,
        -0.748505 0.004083 -0.663117,
        -0.885449 0.004083 -0.464719,
        -0.970934 0.004083 -0.239314,
        -0.999992 0.004083 0,
        -0.970934 0.004083 0.239314,
        -0.885449 0.004083 0.464719,
        -0.748505 0.004083 0.663117,
        -0.56806 0.004083 0.822977,
        -0.354602 0.004083 0.935008,
        -0.120536 0.004083 0.992701,
        0.120536 0.004083 0.992701,
        0.354602 0.004083 0.935008,
        0.56806 0.004083 0.822977,
        0.748505 0.004083 0.663117,
        0.885449 0.004083 0.464719,
        0.970934 0.004083 0.239314,
        -0 -1 0,
        0 -1 0,
        1 0 -0,
        1 0 -0,
        0.374914 0.92706 -0,
        0.374914 0.92706 0,
        -0 1 0,
        0 1 -0,
        -1 0 0,
        -1 0 0,
        0 -0 1,
        0 -0 1,
        -0 0 1,
        0 0 -1,
        -0 0 -1,
        -0 0 -1,
        -0 1 -0,
        0 1 -0,
        -1 0 -7.10543e-15,
        -1 0 -7.10543e-15,
        -0.374914 -0.92706 0,
        -0.374914 -0.92706 -2.71236e-15,
        -0 -1 0,
        0 -1 0,
        1 0 -0,
        1 0 -0,
        -5.83009e-15 0 1,
        -5.23161e-15 -4.6682e-15 1,
        0 -6.0633e-15 1,
        5.83009e-15 0 -1,
        5.23161e-15 4.6682e-15 -1,
        0 6.0633e-15 -1,
        0 -1 -0,
        0 -1 -0,
        -1 0 7.10543e-15,
        -1 0 7.10543e-15,
        -0.374914 0.92706 0,
        -0.374914 0.92706 2.71236e-15,
        0 1 0,
        0 1 0,
        1 -0 0,
        1 -0 0,
        -8.74514e-15 0 -1,
        -9.0547e-15 -2.41459e-15 -1,
        -0 -0 -1,
        8.74514e-15 0 1,
        9.0547e-15 2.41459e-15 1,
        -0 0 1,
        0 1 0,
        0 1 0,
        1 -0 0,
        1 -0 0,
        0.374914 -0.92706 0,
        0.374914 -0.92706 0,
        0 -1 0,
        0 -1 -0,
        -1 -0 -0,
        -1 0 -0,
        0 2.27374e-14 -1,
        -2.21337e-15 5.47307e-15 -1,
        0 6.0633e-15 -1,
        0 0 1,
        -8.04863e-16 -6.27793e-15 1,
        0 -6.0633e-15 1 
      ]
    }
    coord DEF STLB_Coordinate Coordinate {
      point [
        292.912 1002.76 1056.95,
        292.912 791.105 1072.51,
        292.912 577.761 1056.95,
        292.912 1002.76 1056.95,
        292.912 792.743 1072.91,
        292.912 791.105 1072.51,
        292.912 1002.76 1056.95,
        292.912 794.237 1073.69,
        292.912 792.743 1072.91,
        292.912 1002.76 1056.95,
        292.912 795.501 1074.81,
        292.912 794.237 1073.69,
        292.912 1002.76 1056.95,
        292.912 796.459 1076.2,
        292.912 795.501 1074.81,
        292.912 1002.76 1056.95,
        292.912 797.058 1077.78,
        292.912 796.459 1076.2,
        292.912 1002.76 1056.95,
        292.912 797.261 1079.45,
        292.912 797.058 1077.78,
        292.912 1002.76 1056.95,
        292.912 1002.76 1101.95,
        292.912 797.261 1079.45,
        292.912 797.261 1079.45,
        292.912 1002.76 1101.95,
        292.912 797.058 1081.13,
        292.912 797.058 1081.13,
        292.912 1002.76 1101.95,
        292.912 796.459 1082.71,
        292.912 796.459 1082.71,
        292.912 1002.76 1101.95,
        292.912 795.501 1084.1,
        292.912 795.501 1084.1,
        292.912 1002.76 1101.95,
        292.912 794.237 1085.22,
        292.912 794.237 1085.22,
        292.912 1002.76 1101.95,
        292.912 792.743 1086,
        292.912 792.743 1086,
        292.912 1002.76 1101.95,
        292.912 791.105 1086.4,
        292.912 791.105 1086.4,
        292.912 1002.76 1101.95,
        292.912 577.761 1101.95,
        292.912 789.417 1086.4,
        292.912 577.761 1101.95,
        292.912 787.779 1086,
        292.912 789.417 1086.4,
        292.912 791.105 1086.4,
        292.912 577.761 1101.95,
        292.912 577.761 1056.95,
        292.912 783.261 1079.45,
        292.912 577.761 1101.95,
        292.912 577.761 1056.95,
        292.912 783.464 1077.78,
        292.912 783.261 1079.45,
        292.912 577.761 1056.95,
        292.912 784.063 1076.2,
        292.912 783.464 1077.78,
        292.912 577.761 1056.95,
        292.912 785.021 1074.81,
        292.912 784.063 1076.2,
        292.912 577.761 1056.95,
        292.912 786.284 1073.69,
        292.912 785.021 1074.81,
        292.912 577.761 1056.95,
        292.912 787.779 1072.91,
        292.912 786.284 1073.69,
        292.912 577.761 1056.95,
        292.912 789.417 1072.51,
        292.912 787.779 1072.91,
        292.912 577.761 1056.95,
        292.912 791.105 1072.51,
        292.912 789.417 1072.51,
        292.912 783.261 1079.45,
        292.912 783.464 1081.13,
        292.912 577.761 1101.95,
        292.912 577.761 1101.95,
        292.912 783.464 1081.13,
        292.912 784.063 1082.71,
        292.912 785.021 1084.1,
        292.912 577.761 1101.95,
        292.912 784.063 1082.71,
        292.912 785.021 1084.1,
        292.912 786.284 1085.22,
        292.912 577.761 1101.95,
        292.912 577.761 1101.95,
        292.912 786.284 1085.22,
        292.912 787.779 1086,
        536.912 1002.76 1056.95,
        414.912 1002.76 1072.45,
        292.912 1002.76 1056.95,
        536.912 1002.76 1056.95,
        416.587 1002.76 1072.66,
        414.912 1002.76 1072.45,
        536.912 1002.76 1056.95,
        418.165 1002.76 1073.26,
        416.587 1002.76 1072.66,
        536.912 1002.76 1056.95,
        419.554 1002.76 1074.22,
        418.165 1002.76 1073.26,
        536.912 1002.76 1056.95,
        420.673 1002.76 1075.48,
        419.554 1002.76 1074.22,
        536.912 1002.76 1056.95,
        421.457 1002.76 1076.97,
        420.673 1002.76 1075.48,
        536.912 1002.76 1056.95,
        421.861 1002.76 1078.61,
        421.457 1002.76 1076.97,
        536.912 1002.76 1056.95,
        536.912 1002.76 1101.95,
        421.861 1002.76 1078.61,
        421.861 1002.76 1078.61,
        536.912 1002.76 1101.95,
        421.861 1002.76 1080.3,
        421.861 1002.76 1080.3,
        536.912 1002.76 1101.95,
        421.457 1002.76 1081.94,
        421.457 1002.76 1081.94,
        536.912 1002.76 1101.95,
        420.673 1002.76 1083.43,
        420.673 1002.76 1083.43,
        536.912 1002.76 1101.95,
        419.554 1002.76 1084.69,
        419.554 1002.76 1084.69,
        536.912 1002.76 1101.95,
        418.165 1002.76 1085.65,
        418.165 1002.76 1085.65,
        536.912 1002.76 1101.95,
        416.587 1002.76 1086.25,
        416.587 1002.76 1086.25,
        536.912 1002.76 1101.95,
        414.912 1002.76 1086.45,
        414.912 1002.76 1086.45,
        536.912 1002.76 1101.95,
        292.912 1002.76 1101.95,
        413.237 1002.76 1086.25,
        292.912 1002.76 1101.95,
        411.659 1002.76 1085.65,
        413.237 1002.76 1086.25,
        414.912 1002.76 1086.45,
        292.912 1002.76 1101.95,
        292.912 1002.76 1056.95,
        407.963 1002.76 1080.3,
        292.912 1002.76 1101.95,
        292.912 1002.76 1056.95,
        407.963 1002.76 1078.61,
        407.963 1002.76 1080.3,
        292.912 1002.76 1056.95,
        408.367 1002.76 1076.97,
        407.963 1002.76 1078.61,
        292.912 1002.76 1056.95,
        409.151 1002.76 1075.48,
        408.367 1002.76 1076.97,
        292.912 1002.76 1056.95,
        410.27 1002.76 1074.22,
        409.151 1002.76 1075.48,
        292.912 1002.76 1056.95,
        411.659 1002.76 1073.26,
        410.27 1002.76 1074.22,
        292.912 1002.76 1056.95,
        413.237 1002.76 1072.66,
        411.659 1002.76 1073.26,
        292.912 1002.76 1056.95,
        414.912 1002.76 1072.45,
        413.237 1002.76 1072.66,
        407.963 1002.76 1080.3,
        408.367 1002.76 1081.94,
        292.912 1002.76 1101.95,
        292.912 1002.76 1101.95,
        408.367 1002.76 1081.94,
        409.151 1002.76 1083.43,
        410.27 1002.76 1084.69,
        292.912 1002.76 1101.95,
        409.151 1002.76 1083.43,
        410.27 1002.76 1084.69,
        411.659 1002.76 1085.65,
        292.912 1002.76 1101.95,
        536.912 577.761 1056.95,
        536.912 791.105 1072.51,
        536.912 1002.76 1056.95,
        536.912 577.761 1056.95,
        536.912 789.417 1072.51,
        536.912 791.105 1072.51,
        536.912 577.761 1056.95,
        536.912 787.779 1072.91,
        536.912 789.417 1072.51,
        536.912 577.761 1056.95,
        536.912 786.284 1073.69,
        536.912 787.779 1072.91,
        536.912 577.761 1056.95,
        536.912 785.021 1074.81,
        536.912 786.284 1073.69,
        536.912 577.761 1056.95,
        536.912 784.063 1076.2,
        536.912 785.021 1074.81,
        536.912 577.761 1056.95,
        536.912 783.464 1077.78,
        536.912 784.063 1076.2,
        536.912 577.761 1056.95,
        536.912 783.261 1079.45,
        536.912 783.464 1077.78,
        536.912 577.761 1056.95,
        536.912 577.761 1101.95,
        536.912 783.261 1079.45,
        536.912 783.261 1079.45,
        536.912 577.761 1101.95,
        536.912 783.464 1081.13,
        536.912 783.464 1081.13,
        536.912 577.761 1101.95,
        536.912 784.063 1082.71,
        536.912 784.063 1082.71,
        536.912 577.761 1101.95,
        536.912 785.021 1084.1,
        536.912 785.021 1084.1,
        536.912 577.761 1101.95,
        536.912 786.284 1085.22,
        536.912 786.284 1085.22,
        536.912 577.761 1101.95,
        536.912 787.779 1086,
        536.912 787.779 1086,
        536.912 577.761 1101.95,
        536.912 789.417 1086.4,
        536.912 789.417 1086.4,
        536.912 577.761 1101.95,
        536.912 791.105 1086.4,
        536.912 791.105 1086.4,
        536.912 577.761 1101.95,
        536.912 1002.76 1101.95,
        536.912 792.743 1086,
        536.912 1002.76 1101.95,
        536.912 794.237 1085.22,
        536.912 792.743 1086,
        536.912 791.105 1086.4,
        536.912 1002.76 1101.95,
        536.912 1002.76 1056.95,
        536.912 797.261 1079.45,
        536.912 1002.76 1101.95,
        536.912 1002.76 1056.95,
        536.912 797.058 1077.78,
        536.912 797.261 1079.45,
        536.912 1002.76 1056.95,
        536.912 796.459 1076.2,
        536.912 797.058 1077.78,
        536.912 1002.76 1056.95,
        536.912 795.501 1074.81,
        536.912 796.459 1076.2,
        536.912 1002.76 1056.95,
        536.912 794.237 1073.69,
        536.912 795.501 1074.81,
        536.912 1002.76 1056.95,
        536.912 792.743 1072.91,
        536.912 794.237 1073.69,
        536.912 1002.76 1056.95,
        536.912 791.105 1072.51,
        536.912 792.743 1072.91,
        536.912 797.261 1079.45,
        536.912 797.058 1081.13,
        536.912 1002.76 1101.95,
        536.912 1002.76 1101.95,
        536.912 797.058 1081.13,
        536.912 796.459 1082.71,
        536.912 795.501 1084.1,
        536.912 1002.76 1101.95,
        536.912 796.459 1082.71,
        536.912 795.501 1084.1,
        536.912 794.237 1085.22,
        536.912 1002.76 1101.95,
        544.912 1015.26 1056.95,
        544.912 790.261 1072.45,
        544.912 565.261 1056.95,
        544.912 1015.26 1056.95,
        544.912 791.936 1072.66,
        544.912 790.261 1072.45,
        544.912 1015.26 1056.95,
        544.912 793.514 1073.26,
        544.912 791.936 1072.66,
        544.912 1015.26 1056.95,
        544.912 794.903 1074.22,
        544.912 793.514 1073.26,
        544.912 1015.26 1056.95,
        544.912 796.022 1075.48,
        544.912 794.903 1074.22,
        544.912 1015.26 1056.95,
        544.912 796.806 1076.97,
        544.912 796.022 1075.48,
        544.912 1015.26 1056.95,
        544.912 797.21 1078.61,
        544.912 796.806 1076.97,
        544.912 1015.26 1056.95,
        544.912 1015.26 1101.95,
        544.912 797.21 1078.61,
        544.912 797.21 1078.61,
        544.912 1015.26 1101.95,
        544.912 797.21 1080.3,
        544.912 797.21 1080.3,
        544.912 1015.26 1101.95,
        544.912 796.806 1081.94,
        544.912 796.806 1081.94,
        544.912 1015.26 1101.95,
        544.912 796.022 1083.43,
        544.912 796.022 1083.43,
        544.912 1015.26 1101.95,
        544.912 794.903 1084.69,
        544.912 794.903 1084.69,
        544.912 1015.26 1101.95,
        544.912 793.514 1085.65,
        544.912 793.514 1085.65,
        544.912 1015.26 1101.95,
        544.912 791.936 1086.25,
        544.912 791.936 1086.25,
        544.912 1015.26 1101.95,
        544.912 790.261 1086.45,
        544.912 790.261 1086.45,
        544.912 1015.26 1101.95,
        544.912 565.261 1101.95,
        544.912 788.586 1086.25,
        544.912 565.261 1101.95,
        544.912 787.008 1085.65,
        544.912 788.586 1086.25,
        544.912 790.261 1086.45,
        544.912 565.261 1101.95,
        544.912 565.261 1056.95,
        544.912 783.312 1080.3,
        544.912 565.261 1101.95,
        544.912 565.261 1056.95,
        544.912 783.312 1078.61,
        544.912 783.312 1080.3,
        544.912 565.261 1056.95,
        544.912 783.716 1076.97,
        544.912 783.312 1078.61,
        544.912 565.261 1056.95,
        544.912 784.5 1075.48,
        544.912 783.716 1076.97,
        544.912 565.261 1056.95,
        544.912 785.619 1074.22,
        544.912 784.5 1075.48,
        544.912 565.261 1056.95,
        544.912 787.008 1073.26,
        544.912 785.619 1074.22,
        544.912 565.261 1056.95,
        544.912 788.586 1072.66,
        544.912 787.008 1073.26,
        544.912 565.261 1056.95,
        544.912 790.261 1072.45,
        544.912 788.586 1072.66,
        544.912 783.312 1080.3,
        544.912 783.716 1081.94,
        544.912 565.261 1101.95,
        544.912 565.261 1101.95,
        544.912 783.716 1081.94,
        544.912 784.5 1083.43,
        544.912 785.619 1084.69,
        544.912 565.261 1101.95,
        544.912 784.5 1083.43,
        544.912 785.619 1084.69,
        544.912 787.008 1085.65,
        544.912 565.261 1101.95,
        284.912 1015.26 1056.95,
        415.755 1015.26 1072.51,
        544.912 1015.26 1056.95,
        284.912 1015.26 1056.95,
        414.068 1015.26 1072.51,
        415.755 1015.26 1072.51,
        284.912 1015.26 1056.95,
        412.43 1015.26 1072.91,
        414.068 1015.26 1072.51,
        284.912 1015.26 1056.95,
        410.935 1015.26 1073.69,
        412.43 1015.26 1072.91,
        284.912 1015.26 1056.95,
        409.672 1015.26 1074.81,
        410.935 1015.26 1073.69,
        284.912 1015.26 1056.95,
        408.714 1015.26 1076.2,
        409.672 1015.26 1074.81,
        284.912 1015.26 1056.95,
        408.115 1015.26 1077.78,
        408.714 1015.26 1076.2,
        284.912 1015.26 1056.95,
        407.912 1015.26 1079.45,
        408.115 1015.26 1077.78,
        284.912 1015.26 1056.95,
        284.912 1015.26 1101.95,
        407.912 1015.26 1079.45,
        407.912 1015.26 1079.45,
        284.912 1015.26 1101.95,
        408.115 1015.26 1081.13,
        408.115 1015.26 1081.13,
        284.912 1015.26 1101.95,
        408.714 1015.26 1082.71,
        408.714 1015.26 1082.71,
        284.912 1015.26 1101.95,
        409.672 1015.26 1084.1,
        409.672 1015.26 1084.1,
        284.912 1015.26 1101.95,
        410.935 1015.26 1085.22,
        410.935 1015.26 1085.22,
        284.912 1015.26 1101.95,
        412.43 1015.26 1086,
        412.43 1015.26 1086,
        284.912 1015.26 1101.95,
        414.068 1015.26 1086.4,
        414.068 1015.26 1086.4,
        284.912 1015.26 1101.95,
        415.755 1015.26 1086.4,
        415.755 1015.26 1086.4,
        284.912 1015.26 1101.95,
        544.912 1015.26 1101.95,
        417.394 1015.26 1086,
        544.912 1015.26 1101.95,
        418.888 1015.26 1085.22,
        417.394 1015.26 1086,
        415.755 1015.26 1086.4,
        544.912 1015.26 1101.95,
        544.912 1015.26 1056.95,
        421.912 1015.26 1079.45,
        544.912 1015.26 1101.95,
        544.912 1015.26 1056.95,
        421.708 1015.26 1077.78,
        421.912 1015.26 1079.45,
        544.912 1015.26 1056.95,
        421.11 1015.26 1076.2,
        421.708 1015.26 1077.78,
        544.912 1015.26 1056.95,
        420.151 1015.26 1074.81,
        421.11 1015.26 1076.2,
        544.912 1015.26 1056.95,
        418.888 1015.26 1073.69,
        420.151 1015.26 1074.81,
        544.912 1015.26 1056.95,
        417.394 1015.26 1072.91,
        418.888 1015.26 1073.69,
        544.912 1015.26 1056.95,
        415.755 1015.26 1072.51,
        417.394 1015.26 1072.91,
        421.912 1015.26 1079.45,
        421.708 1015.26 1081.13,
        544.912 1015.26 1101.95,
        544.912 1015.26 1101.95,
        421.708 1015.26 1081.13,
        421.11 1015.26 1082.71,
        420.151 1015.26 1084.1,
        544.912 1015.26 1101.95,
        421.11 1015.26 1082.71,
        420.151 1015.26 1084.1,
        418.888 1015.26 1085.22,
        544.912 1015.26 1101.95,
        284.912 565.261 1056.95,
        284.912 790.261 1072.45,
        284.912 1015.26 1056.95,
        284.912 565.261 1056.95,
        284.912 788.586 1072.66,
        284.912 790.261 1072.45,
        284.912 565.261 1056.95,
        284.912 787.008 1073.26,
        284.912 788.586 1072.66,
        284.912 565.261 1056.95,
        284.912 785.619 1074.22,
        284.912 787.008 1073.26,
        284.912 565.261 1056.95,
        284.912 784.5 1075.48,
        284.912 785.619 1074.22,
        284.912 565.261 1056.95,
        284.912 783.716 1076.97,
        284.912 784.5 1075.48,
        284.912 565.261 1056.95,
        284.912 783.312 1078.61,
        284.912 783.716 1076.97,
        284.912 565.261 1056.95,
        284.912 565.261 1101.95,
        284.912 783.312 1078.61,
        284.912 783.312 1078.61,
        284.912 565.261 1101.95,
        284.912 783.312 1080.3,
        284.912 783.312 1080.3,
        284.912 565.261 1101.95,
        284.912 783.716 1081.94,
        284.912 783.716 1081.94,
        284.912 565.261 1101.95,
        284.912 784.5 1083.43,
        284.912 784.5 1083.43,
        284.912 565.261 1101.95,
        284.912 785.619 1084.69,
        284.912 785.619 1084.69,
        284.912 565.261 1101.95,
        284.912 787.008 1085.65,
        284.912 787.008 1085.65,
        284.912 565.261 1101.95,
        284.912 788.586 1086.25,
        284.912 788.586 1086.25,
        284.912 565.261 1101.95,
        284.912 790.261 1086.45,
        284.912 790.261 1086.45,
        284.912 565.261 1101.95,
        284.912 1015.26 1101.95,
        284.912 791.936 1086.25,
        284.912 1015.26 1101.95,
        284.912 793.514 1085.65,
        284.912 791.936 1086.25,
        284.912 790.261 1086.45,
        284.912 1015.26 1101.95,
        284.912 1015.26 1056.95,
        284.912 797.21 1080.3,
        284.912 1015.26 1101.95,
        284.912 1015.26 1056.95,
        284.912 797.21 1078.61,
        284.912 797.21 1080.3,
        284.912 1015.26 1056.95,
        284.912 796.806 1076.97,
        284.912 797.21 1078.61,
        284.912 1015.26 1056.95,
        284.912 796.022 1075.48,
        284.912 796.806 1076.97,
        284.912 1015.26 1056.95,
        284.912 794.903 1074.22,
        284.912 796.022 1075.48,
        284.912 1015.26 1056.95,
        284.912 793.514 1073.26,
        284.912 794.903 1074.22,
        284.912 1015.26 1056.95,
        284.912 791.936 1072.66,
        284.912 793.514 1073.26,
        284.912 1015.26 1056.95,
        284.912 790.261 1072.45,
        284.912 791.936 1072.66,
        284.912 797.21 1080.3,
        284.912 796.806 1081.94,
        284.912 1015.26 1101.95,
        284.912 1015.26 1101.95,
        284.912 796.806 1081.94,
        284.912 796.022 1083.43,
        284.912 794.903 1084.69,
        284.912 1015.26 1101.95,
        284.912 796.022 1083.43,
        284.912 794.903 1084.69,
        284.912 793.514 1085.65,
        284.912 1015.26 1101.95,
        544.912 565.261 1056.95,
        415.755 565.261 1072.51,
        284.912 565.261 1056.95,
        544.912 565.261 1056.95,
        417.394 565.261 1072.91,
        415.755 565.261 1072.51,
        544.912 565.261 1056.95,
        418.888 565.261 1073.69,
        417.394 565.261 1072.91,
        544.912 565.261 1056.95,
        420.151 565.261 1074.81,
        418.888 565.261 1073.69,
        544.912 565.261 1056.95,
        421.11 565.261 1076.2,
        420.151 565.261 1074.81,
        544.912 565.261 1056.95,
        421.708 565.261 1077.78,
        421.11 565.261 1076.2,
        544.912 565.261 1056.95,
        421.912 565.261 1079.45,
        421.708 565.261 1077.78,
        544.912 565.261 1056.95,
        544.912 565.261 1101.95,
        421.912 565.261 1079.45,
        421.912 565.261 1079.45,
        544.912 565.261 1101.95,
        421.708 565.261 1081.13,
        421.708 565.261 1081.13,
        544.912 565.261 1101.95,
        421.11 565.261 1082.71,
        421.11 565.261 1082.71,
        544.912 565.261 1101.95,
        420.151 565.261 1084.1,
        420.151 565.261 1084.1,
        544.912 565.261 1101.95,
        418.888 565.261 1085.22,
        418.888 565.261 1085.22,
        544.912 565.261 1101.95,
        417.394 565.261 1086,
        417.394 565.261 1086,
        544.912 565.261 1101.95,
        415.755 565.261 1086.4,
        415.755 565.261 1086.4,
        544.912 565.261 1101.95,
        284.912 565.261 1101.95,
        414.068 565.261 1086.4,
        284.912 565.261 1101.95,
        412.43 565.261 1086,
        414.068 565.261 1086.4,
        415.755 565.261 1086.4,
        284.912 565.261 1101.95,
        284.912 565.261 1056.95,
        407.912 565.261 1079.45,
        284.912 565.261 1101.95,
        284.912 565.261 1056.95,
        408.115 565.261 1077.78,
        407.912 565.261 1079.45,
        284.912 565.261 1056.95,
        408.714 565.261 1076.2,
        408.115 565.261 1077.78,
        284.912 565.261 1056.95,
        409.672 565.261 1074.81,
        408.714 565.261 1076.2,
        284.912 565.261 1056.95,
        410.935 565.261 1073.69,
        409.672 565.261 1074.81,
        284.912 565.261 1056.95,
        412.43 565.261 1072.91,
        410.935 565.261 1073.69,
        284.912 565.261 1056.95,
        414.068 565.261 1072.51,
        412.43 565.261 1072.91,
        284.912 565.261 1056.95,
        415.755 565.261 1072.51,
        414.068 565.261 1072.51,
        407.912 565.261 1079.45,
        408.115 565.261 1081.13,
        284.912 565.261 1101.95,
        284.912 565.261 1101.95,
        408.115 565.261 1081.13,
        408.714 565.261 1082.71,
        409.672 565.261 1084.1,
        284.912 565.261 1101.95,
        408.714 565.261 1082.71,
        409.672 565.261 1084.1,
        410.935 565.261 1085.22,
        284.912 565.261 1101.95,
        284.912 565.261 1101.95,
        410.935 565.261 1085.22,
        412.43 565.261 1086,
        292.912 577.761 1056.95,
        414.912 577.761 1072.45,
        536.912 577.761 1056.95,
        292.912 577.761 1056.95,
        413.237 577.761 1072.66,
        414.912 577.761 1072.45,
        292.912 577.761 1056.95,
        411.659 577.761 1073.26,
        413.237 577.761 1072.66,
        292.912 577.761 1056.95,
        410.27 577.761 1074.22,
        411.659 577.761 1073.26,
        292.912 577.761 1056.95,
        409.151 577.761 1075.48,
        410.27 577.761 1074.22,
        292.912 577.761 1056.95,
        408.367 577.761 1076.97,
        409.151 577.761 1075.48,
        292.912 577.761 1056.95,
        407.963 577.761 1078.61,
        408.367 577.761 1076.97,
        292.912 577.761 1056.95,
        292.912 577.761 1101.95,
        407.963 577.761 1078.61,
        407.963 577.761 1078.61,
        292.912 577.761 1101.95,
        407.963 577.761 1080.3,
        407.963 577.761 1080.3,
        292.912 577.761 1101.95,
        408.367 577.761 1081.94,
        408.367 577.761 1081.94,
        292.912 577.761 1101.95,
        409.151 577.761 1083.43,
        409.151 577.761 1083.43,
        292.912 577.761 1101.95,
        410.27 577.761 1084.69,
        410.27 577.761 1084.69,
        292.912 577.761 1101.95,
        411.659 577.761 1085.65,
        411.659 577.761 1085.65,
        292.912 577.761 1101.95,
        413.237 577.761 1086.25,
        413.237 577.761 1086.25,
        292.912 577.761 1101.95,
        414.912 577.761 1086.45,
        414.912 577.761 1086.45,
        292.912 577.761 1101.95,
        536.912 577.761 1101.95,
        416.587 577.761 1086.25,
        536.912 577.761 1101.95,
        418.165 577.761 1085.65,
        416.587 577.761 1086.25,
        414.912 577.761 1086.45,
        536.912 577.761 1101.95,
        536.912 577.761 1056.95,
        421.861 577.761 1080.3,
        536.912 577.761 1101.95,
        536.912 577.761 1056.95,
        421.861 577.761 1078.61,
        421.861 577.761 1080.3,
        536.912 577.761 1056.95,
        421.457 577.761 1076.97,
        421.861 577.761 1078.61,
        536.912 577.761 1056.95,
        420.673 577.761 1075.48,
        421.457 577.761 1076.97,
        536.912 577.761 1056.95,
        419.554 577.761 1074.22,
        420.673 577.761 1075.48,
        536.912 577.761 1056.95,
        418.165 577.761 1073.26,
        419.554 577.761 1074.22,
        536.912 577.761 1056.95,
        416.587 577.761 1072.66,
        418.165 577.761 1073.26,
        536.912 577.761 1056.95,
        414.912 577.761 1072.45,
        416.587 577.761 1072.66,
        421.861 577.761 1080.3,
        421.457 577.761 1081.94,
        536.912 577.761 1101.95,
        536.912 577.761 1101.95,
        421.457 577.761 1081.94,
        420.673 577.761 1083.43,
        419.554 577.761 1084.69,
        536.912 577.761 1101.95,
        420.673 577.761 1083.43,
        419.554 577.761 1084.69,
        418.165 577.761 1085.65,
        536.912 577.761 1101.95,
        544.912 1015.26 1101.95,
        536.912 1002.76 1101.95,
        544.912 565.261 1101.95,
        544.912 1015.26 1101.95,
        284.912 1015.26 1101.95,
        536.912 1002.76 1101.95,
        536.912 1002.76 1101.95,
        284.912 1015.26 1101.95,
        292.912 1002.76 1101.95,
        292.912 1002.76 1101.95,
        284.912 1015.26 1101.95,
        284.912 565.261 1101.95,
        292.912 577.761 1101.95,
        284.912 565.261 1101.95,
        544.912 565.261 1101.95,
        536.912 577.761 1101.95,
        544.912 565.261 1101.95,
        536.912 1002.76 1101.95,
        536.912 577.761 1101.95,
        292.912 577.761 1101.95,
        544.912 565.261 1101.95,
        292.912 1002.76 1101.95,
        284.912 565.261 1101.95,
        292.912 577.761 1101.95,
        544.912 565.261 1056.95,
        536.912 1002.76 1056.95,
        544.912 1015.26 1056.95,
        544.912 565.261 1056.95,
        536.912 577.761 1056.95,
        536.912 1002.76 1056.95,
        544.912 565.261 1056.95,
        284.912 565.261 1056.95,
        536.912 577.761 1056.95,
        536.912 577.761 1056.95,
        284.912 565.261 1056.95,
        292.912 577.761 1056.95,
        292.912 577.761 1056.95,
        284.912 565.261 1056.95,
        292.912 1002.76 1056.95,
        292.912 1002.76 1056.95,
        284.912 565.261 1056.95,
        284.912 1015.26 1056.95,
        544.912 1015.26 1056.95,
        292.912 1002.76 1056.95,
        284.912 1015.26 1056.95,
        544.912 1015.26 1056.95,
        536.912 1002.76 1056.95,
        292.912 1002.76 1056.95,
        292.912 797.058 1081.13,
        284.912 797.21 1080.3,
        292.912 797.261 1079.45,
        292.912 797.058 1081.13,
        284.912 796.806 1081.94,
        284.912 797.21 1080.3,
        292.912 797.058 1081.13,
        292.912 796.459 1082.71,
        284.912 796.806 1081.94,
        284.912 796.806 1081.94,
        292.912 796.459 1082.71,
        284.912 796.022 1083.43,
        284.912 796.022 1083.43,
        292.912 796.459 1082.71,
        292.912 795.501 1084.1,
        284.912 794.903 1084.69,
        292.912 795.501 1084.1,
        292.912 794.237 1085.22,
        284.912 793.514 1085.65,
        292.912 794.237 1085.22,
        292.912 792.743 1086,
        284.912 791.936 1086.25,
        292.912 792.743 1086,
        292.912 791.105 1086.4,
        284.912 790.261 1086.45,
        292.912 791.105 1086.4,
        292.912 789.417 1086.4,
        284.912 788.586 1086.25,
        292.912 789.417 1086.4,
        292.912 787.779 1086,
        284.912 787.008 1085.65,
        292.912 787.779 1086,
        292.912 786.284 1085.22,
        284.912 785.619 1084.69,
        292.912 786.284 1085.22,
        292.912 785.021 1084.1,
        284.912 784.5 1083.43,
        292.912 785.021 1084.1,
        292.912 784.063 1082.71,
        284.912 783.716 1081.94,
        292.912 784.063 1082.71,
        292.912 783.464 1081.13,
        284.912 783.312 1080.3,
        292.912 783.464 1081.13,
        292.912 783.261 1079.45,
        284.912 783.312 1078.61,
        292.912 783.261 1079.45,
        292.912 783.464 1077.78,
        284.912 783.716 1076.97,
        292.912 783.464 1077.78,
        292.912 784.063 1076.2,
        284.912 784.5 1075.48,
        292.912 784.063 1076.2,
        292.912 785.021 1074.81,
        284.912 785.619 1074.22,
        292.912 785.021 1074.81,
        292.912 786.284 1073.69,
        284.912 787.008 1073.26,
        292.912 786.284 1073.69,
        292.912 787.779 1072.91,
        284.912 788.586 1072.66,
        292.912 787.779 1072.91,
        292.912 789.417 1072.51,
        284.912 790.261 1072.45,
        292.912 789.417 1072.51,
        292.912 791.105 1072.51,
        284.912 791.936 1072.66,
        292.912 791.105 1072.51,
        292.912 792.743 1072.91,
        284.912 793.514 1073.26,
        292.912 792.743 1072.91,
        292.912 794.237 1073.69,
        284.912 794.903 1074.22,
        292.912 794.237 1073.69,
        292.912 795.501 1074.81,
        284.912 796.022 1075.48,
        292.912 795.501 1074.81,
        292.912 796.459 1076.2,
        284.912 796.806 1076.97,
        292.912 796.459 1076.2,
        292.912 797.058 1077.78,
        284.912 797.21 1078.61,
        292.912 797.058 1077.78,
        292.912 797.261 1079.45,
        284.912 797.21 1080.3,
        284.912 797.21 1078.61,
        292.912 797.261 1079.45,
        284.912 796.022 1083.43,
        292.912 795.501 1084.1,
        284.912 794.903 1084.69,
        284.912 794.903 1084.69,
        292.912 794.237 1085.22,
        284.912 793.514 1085.65,
        284.912 793.514 1085.65,
        292.912 792.743 1086,
        284.912 791.936 1086.25,
        284.912 791.936 1086.25,
        292.912 791.105 1086.4,
        284.912 790.261 1086.45,
        284.912 790.261 1086.45,
        292.912 789.417 1086.4,
        284.912 788.586 1086.25,
        284.912 788.586 1086.25,
        292.912 787.779 1086,
        284.912 787.008 1085.65,
        284.912 787.008 1085.65,
        292.912 786.284 1085.22,
        284.912 785.619 1084.69,
        284.912 785.619 1084.69,
        292.912 785.021 1084.1,
        284.912 784.5 1083.43,
        284.912 784.5 1083.43,
        292.912 784.063 1082.71,
        284.912 783.716 1081.94,
        284.912 783.716 1081.94,
        292.912 783.464 1081.13,
        284.912 783.312 1080.3,
        284.912 783.312 1080.3,
        292.912 783.261 1079.45,
        284.912 783.312 1078.61,
        284.912 783.312 1078.61,
        292.912 783.464 1077.78,
        284.912 783.716 1076.97,
        284.912 783.716 1076.97,
        292.912 784.063 1076.2,
        284.912 784.5 1075.48,
        284.912 784.5 1075.48,
        292.912 785.021 1074.81,
        284.912 785.619 1074.22,
        284.912 785.619 1074.22,
        292.912 786.284 1073.69,
        284.912 787.008 1073.26,
        284.912 787.008 1073.26,
        292.912 787.779 1072.91,
        284.912 788.586 1072.66,
        284.912 788.586 1072.66,
        292.912 789.417 1072.51,
        284.912 790.261 1072.45,
        284.912 790.261 1072.45,
        292.912 791.105 1072.51,
        284.912 791.936 1072.66,
        284.912 791.936 1072.66,
        292.912 792.743 1072.91,
        284.912 793.514 1073.26,
        284.912 793.514 1073.26,
        292.912 794.237 1073.69,
        284.912 794.903 1074.22,
        284.912 794.903 1074.22,
        292.912 795.501 1074.81,
        284.912 796.022 1075.48,
        284.912 796.022 1075.48,
        292.912 796.459 1076.2,
        284.912 796.806 1076.97,
        284.912 796.806 1076.97,
        292.912 797.058 1077.78,
        284.912 797.21 1078.61,
        544.912 791.936 1072.66,
        536.912 791.105 1072.51,
        544.912 790.261 1072.45,
        544.912 791.936 1072.66,
        536.912 792.743 1072.91,
        536.912 791.105 1072.51,
        544.912 791.936 1072.66,
        544.912 793.514 1073.26,
        536.912 792.743 1072.91,
        536.912 792.743 1072.91,
        544.912 793.514 1073.26,
        536.912 794.237 1073.69,
        536.912 794.237 1073.69,
        544.912 793.514 1073.26,
        544.912 794.903 1074.22,
        536.912 795.501 1074.81,
        544.912 794.903 1074.22,
        544.912 796.022 1075.48,
        536.912 796.459 1076.2,
        544.912 796.022 1075.48,
        544.912 796.806 1076.97,
        536.912 797.058 1077.78,
        544.912 796.806 1076.97,
        544.912 797.21 1078.61,
        536.912 797.261 1079.45,
        544.912 797.21 1078.61,
        544.912 797.21 1080.3,
        536.912 797.058 1081.13,
        544.912 797.21 1080.3,
        544.912 796.806 1081.94,
        536.912 796.459 1082.71,
        544.912 796.806 1081.94,
        544.912 796.022 1083.43,
        536.912 795.501 1084.1,
        544.912 796.022 1083.43,
        544.912 794.903 1084.69,
        536.912 794.237 1085.22,
        544.912 794.903 1084.69,
        544.912 793.514 1085.65,
        536.912 792.743 1086,
        544.912 793.514 1085.65,
        544.912 791.936 1086.25,
        536.912 791.105 1086.4,
        544.912 791.936 1086.25,
        544.912 790.261 1086.45,
        536.912 789.417 1086.4,
        544.912 790.261 1086.45,
        544.912 788.586 1086.25,
        536.912 787.779 1086,
        544.912 788.586 1086.25,
        544.912 787.008 1085.65,
        536.912 786.284 1085.22,
        544.912 787.008 1085.65,
        544.912 785.619 1084.69,
        536.912 785.021 1084.1,
        544.912 785.619 1084.69,
        544.912 784.5 1083.43,
        536.912 784.063 1082.71,
        544.912 784.5 1083.43,
        544.912 783.716 1081.94,
        536.912 783.464 1081.13,
        544.912 783.716 1081.94,
        544.912 783.312 1080.3,
        536.912 783.261 1079.45,
        544.912 783.312 1080.3,
        544.912 783.312 1078.61,
        536.912 783.464 1077.78,
        544.912 783.312 1078.61,
        544.912 783.716 1076.97,
        536.912 784.063 1076.2,
        544.912 783.716 1076.97,
        544.912 784.5 1075.48,
        536.912 785.021 1074.81,
        544.912 784.5 1075.48,
        544.912 785.619 1074.22,
        536.912 786.284 1073.69,
        544.912 785.619 1074.22,
        544.912 787.008 1073.26,
        536.912 787.779 1072.91,
        544.912 787.008 1073.26,
        544.912 788.586 1072.66,
        536.912 789.417 1072.51,
        544.912 788.586 1072.66,
        544.912 790.261 1072.45,
        536.912 791.105 1072.51,
        536.912 789.417 1072.51,
        544.912 790.261 1072.45,
        536.912 794.237 1073.69,
        544.912 794.903 1074.22,
        536.912 795.501 1074.81,
        536.912 795.501 1074.81,
        544.912 796.022 1075.48,
        536.912 796.459 1076.2,
        536.912 796.459 1076.2,
        544.912 796.806 1076.97,
        536.912 797.058 1077.78,
        536.912 797.058 1077.78,
        544.912 797.21 1078.61,
        536.912 797.261 1079.45,
        536.912 797.261 1079.45,
        544.912 797.21 1080.3,
        536.912 797.058 1081.13,
        536.912 797.058 1081.13,
        544.912 796.806 1081.94,
        536.912 796.459 1082.71,
        536.912 796.459 1082.71,
        544.912 796.022 1083.43,
        536.912 795.501 1084.1,
        536.912 795.501 1084.1,
        544.912 794.903 1084.69,
        536.912 794.237 1085.22,
        536.912 794.237 1085.22,
        544.912 793.514 1085.65,
        536.912 792.743 1086,
        536.912 792.743 1086,
        544.912 791.936 1086.25,
        536.912 791.105 1086.4,
        536.912 791.105 1086.4,
        544.912 790.261 1086.45,
        536.912 789.417 1086.4,
        536.912 789.417 1086.4,
        544.912 788.586 1086.25,
        536.912 787.779 1086,
        536.912 787.779 1086,
        544.912 787.008 1085.65,
        536.912 786.284 1085.22,
        536.912 786.284 1085.22,
        544.912 785.619 1084.69,
        536.912 785.021 1084.1,
        536.912 785.021 1084.1,
        544.912 784.5 1083.43,
        536.912 784.063 1082.71,
        536.912 784.063 1082.71,
        544.912 783.716 1081.94,
        536.912 783.464 1081.13,
        536.912 783.464 1081.13,
        544.912 783.312 1080.3,
        536.912 783.261 1079.45,
        536.912 783.261 1079.45,
        544.912 783.312 1078.61,
        536.912 783.464 1077.78,
        536.912 783.464 1077.78,
        544.912 783.716 1076.97,
        536.912 784.063 1076.2,
        536.912 784.063 1076.2,
        544.912 784.5 1075.48,
        536.912 785.021 1074.81,
        536.912 785.021 1074.81,
        544.912 785.619 1074.22,
        536.912 786.284 1073.69,
        536.912 786.284 1073.69,
        544.912 787.008 1073.26,
        536.912 787.779 1072.91,
        536.912 787.779 1072.91,
        544.912 788.586 1072.66,
        536.912 789.417 1072.51,
        416.587 577.761 1086.25,
        415.755 565.261 1086.4,
        414.912 577.761 1086.45,
        416.587 577.761 1086.25,
        417.394 565.261 1086,
        415.755 565.261 1086.4,
        416.587 577.761 1086.25,
        418.165 577.761 1085.65,
        417.394 565.261 1086,
        417.394 565.261 1086,
        418.165 577.761 1085.65,
        418.888 565.261 1085.22,
        418.888 565.261 1085.22,
        418.165 577.761 1085.65,
        419.554 577.761 1084.69,
        420.151 565.261 1084.1,
        419.554 577.761 1084.69,
        420.673 577.761 1083.43,
        421.11 565.261 1082.71,
        420.673 577.761 1083.43,
        421.457 577.761 1081.94,
        421.708 565.261 1081.13,
        421.457 577.761 1081.94,
        421.861 577.761 1080.3,
        421.912 565.261 1079.45,
        421.861 577.761 1080.3,
        421.861 577.761 1078.61,
        421.708 565.261 1077.78,
        421.861 577.761 1078.61,
        421.457 577.761 1076.97,
        421.11 565.261 1076.2,
        421.457 577.761 1076.97,
        420.673 577.761 1075.48,
        420.151 565.261 1074.81,
        420.673 577.761 1075.48,
        419.554 577.761 1074.22,
        418.888 565.261 1073.69,
        419.554 577.761 1074.22,
        418.165 577.761 1073.26,
        417.394 565.261 1072.91,
        418.165 577.761 1073.26,
        416.587 577.761 1072.66,
        415.755 565.261 1072.51,
        416.587 577.761 1072.66,
        414.912 577.761 1072.45,
        414.068 565.261 1072.51,
        414.912 577.761 1072.45,
        413.237 577.761 1072.66,
        412.43 565.261 1072.91,
        413.237 577.761 1072.66,
        411.659 577.761 1073.26,
        410.935 565.261 1073.69,
        411.659 577.761 1073.26,
        410.27 577.761 1074.22,
        409.672 565.261 1074.81,
        410.27 577.761 1074.22,
        409.151 577.761 1075.48,
        408.714 565.261 1076.2,
        409.151 577.761 1075.48,
        408.367 577.761 1076.97,
        408.115 565.261 1077.78,
        408.367 577.761 1076.97,
        407.963 577.761 1078.61,
        407.912 565.261 1079.45,
        407.963 577.761 1078.61,
        407.963 577.761 1080.3,
        408.115 565.261 1081.13,
        407.963 577.761 1080.3,
        408.367 577.761 1081.94,
        408.714 565.261 1082.71,
        408.367 577.761 1081.94,
        409.151 577.761 1083.43,
        409.672 565.261 1084.1,
        409.151 577.761 1083.43,
        410.27 577.761 1084.69,
        410.935 565.261 1085.22,
        410.27 577.761 1084.69,
        411.659 577.761 1085.65,
        412.43 565.261 1086,
        411.659 577.761 1085.65,
        413.237 577.761 1086.25,
        414.068 565.261 1086.4,
        413.237 577.761 1086.25,
        414.912 577.761 1086.45,
        415.755 565.261 1086.4,
        414.068 565.261 1086.4,
        414.912 577.761 1086.45,
        418.888 565.261 1085.22,
        419.554 577.761 1084.69,
        420.151 565.261 1084.1,
        420.151 565.261 1084.1,
        420.673 577.761 1083.43,
        421.11 565.261 1082.71,
        421.11 565.261 1082.71,
        421.457 577.761 1081.94,
        421.708 565.261 1081.13,
        421.708 565.261 1081.13,
        421.861 577.761 1080.3,
        421.912 565.261 1079.45,
        421.912 565.261 1079.45,
        421.861 577.761 1078.61,
        421.708 565.261 1077.78,
        421.708 565.261 1077.78,
        421.457 577.761 1076.97,
        421.11 565.261 1076.2,
        421.11 565.261 1076.2,
        420.673 577.761 1075.48,
        420.151 565.261 1074.81,
        420.151 565.261 1074.81,
        419.554 577.761 1074.22,
        418.888 565.261 1073.69,
        418.888 565.261 1073.69,
        418.165 577.761 1073.26,
        417.394 565.261 1072.91,
        417.394 565.261 1072.91,
        416.587 577.761 1072.66,
        415.755 565.261 1072.51,
        415.755 565.261 1072.51,
        414.912 577.761 1072.45,
        414.068 565.261 1072.51,
        414.068 565.261 1072.51,
        413.237 577.761 1072.66,
        412.43 565.261 1072.91,
        412.43 565.261 1072.91,
        411.659 577.761 1073.26,
        410.935 565.261 1073.69,
        410.935 565.261 1073.69,
        410.27 577.761 1074.22,
        409.672 565.261 1074.81,
        409.672 565.261 1074.81,
        409.151 577.761 1075.48,
        408.714 565.261 1076.2,
        408.714 565.261 1076.2,
        408.367 577.761 1076.97,
        408.115 565.261 1077.78,
        408.115 565.261 1077.78,
        407.963 577.761 1078.61,
        407.912 565.261 1079.45,
        407.912 565.261 1079.45,
        407.963 577.761 1080.3,
        408.115 565.261 1081.13,
        408.115 565.261 1081.13,
        408.367 577.761 1081.94,
        408.714 565.261 1082.71,
        408.714 565.261 1082.71,
        409.151 577.761 1083.43,
        409.672 565.261 1084.1,
        409.672 565.261 1084.1,
        410.27 577.761 1084.69,
        410.935 565.261 1085.22,
        410.935 565.261 1085.22,
        411.659 577.761 1085.65,
        412.43 565.261 1086,
        412.43 565.261 1086,
        413.237 577.761 1086.25,
        414.068 565.261 1086.4,
        408.115 1015.26 1081.13,
        407.963 1002.76 1080.3,
        407.912 1015.26 1079.45,
        408.115 1015.26 1081.13,
        408.367 1002.76 1081.94,
        407.963 1002.76 1080.3,
        408.115 1015.26 1081.13,
        408.714 1015.26 1082.71,
        408.367 1002.76 1081.94,
        408.367 1002.76 1081.94,
        408.714 1015.26 1082.71,
        409.151 1002.76 1083.43,
        409.151 1002.76 1083.43,
        408.714 1015.26 1082.71,
        409.672 1015.26 1084.1,
        410.27 1002.76 1084.69,
        409.672 1015.26 1084.1,
        410.935 1015.26 1085.22,
        411.659 1002.76 1085.65,
        410.935 1015.26 1085.22,
        412.43 1015.26 1086,
        413.237 1002.76 1086.25,
        412.43 1015.26 1086,
        414.068 1015.26 1086.4,
        414.912 1002.76 1086.45,
        414.068 1015.26 1086.4,
        415.755 1015.26 1086.4,
        416.587 1002.76 1086.25,
        415.755 1015.26 1086.4,
        417.394 1015.26 1086,
        418.165 1002.76 1085.65,
        417.394 1015.26 1086,
        418.888 1015.26 1085.22,
        419.554 1002.76 1084.69,
        418.888 1015.26 1085.22,
        420.151 1015.26 1084.1,
        420.673 1002.76 1083.43,
        420.151 1015.26 1084.1,
        421.11 1015.26 1082.71,
        421.457 1002.76 1081.94,
        421.11 1015.26 1082.71,
        421.708 1015.26 1081.13,
        421.861 1002.76 1080.3,
        421.708 1015.26 1081.13,
        421.912 1015.26 1079.45,
        421.861 1002.76 1078.61,
        421.912 1015.26 1079.45,
        421.708 1015.26 1077.78,
        421.457 1002.76 1076.97,
        421.708 1015.26 1077.78,
        421.11 1015.26 1076.2,
        420.673 1002.76 1075.48,
        421.11 1015.26 1076.2,
        420.151 1015.26 1074.81,
        419.554 1002.76 1074.22,
        420.151 1015.26 1074.81,
        418.888 1015.26 1073.69,
        418.165 1002.76 1073.26,
        418.888 1015.26 1073.69,
        417.394 1015.26 1072.91,
        416.587 1002.76 1072.66,
        417.394 1015.26 1072.91,
        415.755 1015.26 1072.51,
        414.912 1002.76 1072.45,
        415.755 1015.26 1072.51,
        414.068 1015.26 1072.51,
        413.237 1002.76 1072.66,
        414.068 1015.26 1072.51,
        412.43 1015.26 1072.91,
        411.659 1002.76 1073.26,
        412.43 1015.26 1072.91,
        410.935 1015.26 1073.69,
        410.27 1002.76 1074.22,
        410.935 1015.26 1073.69,
        409.672 1015.26 1074.81,
        409.151 1002.76 1075.48,
        409.672 1015.26 1074.81,
        408.714 1015.26 1076.2,
        408.367 1002.76 1076.97,
        408.714 1015.26 1076.2,
        408.115 1015.26 1077.78,
        407.963 1002.76 1078.61,
        408.115 1015.26 1077.78,
        407.912 1015.26 1079.45,
        407.963 1002.76 1080.3,
        407.963 1002.76 1078.61,
        407.912 1015.26 1079.45,
        409.151 1002.76 1083.43,
        409.672 1015.26 1084.1,
        410.27 1002.76 1084.69,
        410.27 1002.76 1084.69,
        410.935 1015.26 1085.22,
        411.659 1002.76 1085.65,
        411.659 1002.76 1085.65,
        412.43 1015.26 1086,
        413.237 1002.76 1086.25,
        413.237 1002.76 1086.25,
        414.068 1015.26 1086.4,
        414.912 1002.76 1086.45,
        414.912 1002.76 1086.45,
        415.755 1015.26 1086.4,
        416.587 1002.76 1086.25,
        416.587 1002.76 1086.25,
        417.394 1015.26 1086,
        418.165 1002.76 1085.65,
        418.165 1002.76 1085.65,
        418.888 1015.26 1085.22,
        419.554 1002.76 1084.69,
        419.554 1002.76 1084.69,
        420.151 1015.26 1084.1,
        420.673 1002.76 1083.43,
        420.673 1002.76 1083.43,
        421.11 1015.26 1082.71,
        421.457 1002.76 1081.94,
        421.457 1002.76 1081.94,
        421.708 1015.26 1081.13,
        421.861 1002.76 1080.3,
        421.861 1002.76 1080.3,
        421.912 1015.26 1079.45,
        421.861 1002.76 1078.61,
        421.861 1002.76 1078.61,
        421.708 1015.26 1077.78,
        421.457 1002.76 1076.97,
        421.457 1002.76 1076.97,
        421.11 1015.26 1076.2,
        420.673 1002.76 1075.48,
        420.673 1002.76 1075.48,
        420.151 1015.26 1074.81,
        419.554 1002.76 1074.22,
        419.554 1002.76 1074.22,
        418.888 1015.26 1073.69,
        418.165 1002.76 1073.26,
        418.165 1002.76 1073.26,
        417.394 1015.26 1072.91,
        416.587 1002.76 1072.66,
        416.587 1002.76 1072.66,
        415.755 1015.26 1072.51,
        414.912 1002.76 1072.45,
        414.912 1002.76 1072.45,
        414.068 1015.26 1072.51,
        413.237 1002.76 1072.66,
        413.237 1002.76 1072.66,
        412.43 1015.26 1072.91,
        411.659 1002.76 1073.26,
        411.659 1002.76 1073.26,
        410.935 1015.26 1073.69,
        410.27 1002.76 1074.22,
        410.27 1002.76 1074.22,
        409.672 1015.26 1074.81,
        409.151 1002.76 1075.48,
        409.151 1002.76 1075.48,
        408.714 1015.26 1076.2,
        408.367 1002.76 1076.97,
        408.367 1002.76 1076.97,
        408.115 1015.26 1077.78,
        407.963 1002.76 1078.61,
        370.912 577.761 1075.45,
        370.912 577.761 1083.45,
        292.912 577.761 1075.45,
        292.912 577.761 1075.45,
        370.912 577.761 1083.45,
        292.912 577.761 1083.45,
        370.912 587.761 1075.45,
        370.912 587.761 1083.45,
        370.912 577.761 1075.45,
        370.912 577.761 1075.45,
        370.912 587.761 1083.45,
        370.912 577.761 1083.45,
        302.912 615.261 1075.45,
        302.912 615.261 1083.45,
        370.912 587.761 1075.45,
        370.912 587.761 1075.45,
        302.912 615.261 1083.45,
        370.912 587.761 1083.45,
        292.912 615.261 1075.45,
        292.912 615.261 1083.45,
        302.912 615.261 1075.45,
        302.912 615.261 1075.45,
        292.912 615.261 1083.45,
        302.912 615.261 1083.45,
        292.912 577.761 1075.45,
        292.912 577.761 1083.45,
        292.912 615.261 1075.45,
        292.912 615.261 1075.45,
        292.912 577.761 1083.45,
        292.912 615.261 1083.45,
        370.912 577.761 1083.45,
        370.912 587.761 1083.45,
        292.912 577.761 1083.45,
        292.912 577.761 1083.45,
        370.912 587.761 1083.45,
        302.912 615.261 1083.45,
        292.912 615.261 1083.45,
        292.912 577.761 1083.45,
        302.912 615.261 1083.45,
        370.912 577.761 1075.45,
        292.912 577.761 1075.45,
        370.912 587.761 1075.45,
        370.912 587.761 1075.45,
        292.912 577.761 1075.45,
        302.912 615.261 1075.45,
        302.912 615.261 1075.45,
        292.912 577.761 1075.45,
        292.912 615.261 1075.45,
        458.912 1002.76 1075.45,
        458.912 1002.76 1083.45,
        536.912 1002.76 1075.45,
        536.912 1002.76 1075.45,
        458.912 1002.76 1083.45,
        536.912 1002.76 1083.45,
        458.912 992.761 1075.45,
        458.912 992.761 1083.45,
        458.912 1002.76 1075.45,
        458.912 1002.76 1075.45,
        458.912 992.761 1083.45,
        458.912 1002.76 1083.45,
        526.912 965.261 1075.45,
        526.912 965.261 1083.45,
        458.912 992.761 1075.45,
        458.912 992.761 1075.45,
        526.912 965.261 1083.45,
        458.912 992.761 1083.45,
        536.912 965.261 1075.45,
        536.912 965.261 1083.45,
        526.912 965.261 1075.45,
        526.912 965.261 1075.45,
        536.912 965.261 1083.45,
        526.912 965.261 1083.45,
        536.912 1002.76 1075.45,
        536.912 1002.76 1083.45,
        536.912 965.261 1075.45,
        536.912 965.261 1075.45,
        536.912 1002.76 1083.45,
        536.912 965.261 1083.45,
        458.912 1002.76 1083.45,
        458.912 992.761 1083.45,
        536.912 1002.76 1083.45,
        536.912 1002.76 1083.45,
        458.912 992.761 1083.45,
        526.912 965.261 1083.45,
        536.912 965.261 1083.45,
        536.912 1002.76 1083.45,
        526.912 965.261 1083.45,
        458.912 1002.76 1075.45,
        536.912 1002.76 1075.45,
        458.912 992.761 1075.45,
        458.912 992.761 1075.45,
        536.912 1002.76 1075.45,
        526.912 965.261 1075.45,
        526.912 965.261 1075.45,
        536.912 1002.76 1075.45,
        536.912 965.261 1075.45,
        458.912 577.761 1083.45,
        458.912 577.761 1075.45,
        536.912 577.761 1083.45,
        536.912 577.761 1083.45,
        458.912 577.761 1075.45,
        536.912 577.761 1075.45,
        458.912 587.761 1083.45,
        458.912 587.761 1075.45,
        458.912 577.761 1083.45,
        458.912 577.761 1083.45,
        458.912 587.761 1075.45,
        458.912 577.761 1075.45,
        526.912 615.261 1083.45,
        526.912 615.261 1075.45,
        458.912 587.761 1083.45,
        458.912 587.761 1083.45,
        526.912 615.261 1075.45,
        458.912 587.761 1075.45,
        536.912 615.261 1083.45,
        536.912 615.261 1075.45,
        526.912 615.261 1083.45,
        526.912 615.261 1083.45,
        536.912 615.261 1075.45,
        526.912 615.261 1075.45,
        536.912 577.761 1083.45,
        536.912 577.761 1075.45,
        536.912 615.261 1083.45,
        536.912 615.261 1083.45,
        536.912 577.761 1075.45,
        536.912 615.261 1075.45,
        458.912 577.761 1075.45,
        458.912 587.761 1075.45,
        536.912 577.761 1075.45,
        536.912 577.761 1075.45,
        458.912 587.761 1075.45,
        526.912 615.261 1075.45,
        536.912 615.261 1075.45,
        536.912 577.761 1075.45,
        526.912 615.261 1075.45,
        458.912 577.761 1083.45,
        536.912 577.761 1083.45,
        458.912 587.761 1083.45,
        458.912 587.761 1083.45,
        536.912 577.761 1083.45,
        526.912 615.261 1083.45,
        526.912 615.261 1083.45,
        536.912 577.761 1083.45,
        536.912 615.261 1083.45,
        370.912 1002.76 1083.45,
        370.912 1002.76 1075.45,
        292.912 1002.76 1083.45,
        292.912 1002.76 1083.45,
        370.912 1002.76 1075.45,
        292.912 1002.76 1075.45,
        370.912 992.761 1083.45,
        370.912 992.761 1075.45,
        370.912 1002.76 1083.45,
        370.912 1002.76 1083.45,
        370.912 992.761 1075.45,
        370.912 1002.76 1075.45,
        302.912 965.261 1083.45,
        302.912 965.261 1075.45,
        370.912 992.761 1083.45,
        370.912 992.761 1083.45,
        302.912 965.261 1075.45,
        370.912 992.761 1075.45,
        292.912 965.261 1083.45,
        292.912 965.261 1075.45,
        302.912 965.261 1083.45,
        302.912 965.261 1083.45,
        292.912 965.261 1075.45,
        302.912 965.261 1075.45,
        292.912 1002.76 1083.45,
        292.912 1002.76 1075.45,
        292.912 965.261 1083.45,
        292.912 965.261 1083.45,
        292.912 1002.76 1075.45,
        292.912 965.261 1075.45,
        370.912 1002.76 1075.45,
        370.912 992.761 1075.45,
        292.912 1002.76 1075.45,
        292.912 1002.76 1075.45,
        370.912 992.761 1075.45,
        302.912 965.261 1075.45,
        292.912 965.261 1075.45,
        292.912 1002.76 1075.45,
        302.912 965.261 1075.45,
        370.912 1002.76 1083.45,
        292.912 1002.76 1083.45,
        370.912 992.761 1083.45,
        370.912 992.761 1083.45,
        292.912 1002.76 1083.45,
        302.912 965.261 1083.45,
        302.912 965.261 1083.45,
        292.912 1002.76 1083.45,
        292.912 965.261 1083.45 
      ]
    }
  }
}